%!PS-Adobe-3.0 EPSF-3.0
%%Creator: cairo 1.14.10 (http://cairographics.org)
%%CreationDate: Sun Jan  7 03:15:58 2018
%%Pages: 1
%%DocumentData: Clean7Bit
%%LanguageLevel: 2
%%BoundingBox: 7 3 216 192
%%EndComments
%%BeginProlog
save
50 dict begin
/q { gsave } bind def
/Q { grestore } bind def
/cm { 6 array astore concat } bind def
/w { setlinewidth } bind def
/J { setlinecap } bind def
/j { setlinejoin } bind def
/M { setmiterlimit } bind def
/d { setdash } bind def
/m { moveto } bind def
/l { lineto } bind def
/c { curveto } bind def
/h { closepath } bind def
/re { exch dup neg 3 1 roll 5 3 roll moveto 0 rlineto
      0 exch rlineto 0 rlineto closepath } bind def
/S { stroke } bind def
/f { fill } bind def
/f* { eofill } bind def
/n { newpath } bind def
/W { clip } bind def
/W* { eoclip } bind def
/BT { } bind def
/ET { } bind def
/pdfmark where { pop globaldict /?pdfmark /exec load put }
    { globaldict begin /?pdfmark /pop load def /pdfmark
    /cleartomark load def end } ifelse
/BDC { mark 3 1 roll /BDC pdfmark } bind def
/EMC { mark /EMC pdfmark } bind def
/cairo_store_point { /cairo_point_y exch def /cairo_point_x exch def } def
/Tj { show currentpoint cairo_store_point } bind def
/TJ {
  {
    dup
    type /stringtype eq
    { show } { -0.001 mul 0 cairo_font_matrix dtransform rmoveto } ifelse
  } forall
  currentpoint cairo_store_point
} bind def
/cairo_selectfont { cairo_font_matrix aload pop pop pop 0 0 6 array astore
    cairo_font exch selectfont cairo_point_x cairo_point_y moveto } bind def
/Tf { pop /cairo_font exch def /cairo_font_matrix where
      { pop cairo_selectfont } if } bind def
/Td { matrix translate cairo_font_matrix matrix concatmatrix dup
      /cairo_font_matrix exch def dup 4 get exch 5 get cairo_store_point
      /cairo_font where { pop cairo_selectfont } if } bind def
/Tm { 2 copy 8 2 roll 6 array astore /cairo_font_matrix exch def
      cairo_store_point /cairo_font where { pop cairo_selectfont } if } bind def
/g { setgray } bind def
/rg { setrgbcolor } bind def
/d1 { setcachedevice } bind def
/cairo_flush_ascii85_file { cairo_ascii85_file status { cairo_ascii85_file flushfile } if } def
/cairo_image { image cairo_flush_ascii85_file } def
/cairo_imagemask { imagemask cairo_flush_ascii85_file } def
%%EndProlog
%%BeginSetup
%%EndSetup
%%Page: 1 1
%%BeginPageSetup
%%PageBoundingBox: 7 3 216 192
%%EndPageSetup
q 7 3 209 189 rectclip q
0 g
2.834646 w
0 J
0 j
[] 0.0 d
4 M q 1 0 0 -1 0 198.425201 cm
72.195 8.23 m 82.664 72.258 82.168 133.852 74.469 193.844 c S Q
q 1 0 0 -1 0 198.425201 cm
147.957 7.473 m 157.488 70.355 141.93 132.48 143.41 194.602 c S Q
q 1 0 0 -1 0 198.425201 cm
25.223 62.777 m 78.668 56.504 131.891 69.574 195.688 67.324 c S Q
q 1 0 0 -1 0 198.425201 cm
13.859 138.539 m 92.219 128.777 148.867 134.801 205.535 140.812 c S Q
0.917647 0 0 rg
5.669291 w
1 J
q 1 0 0 -1 0 198.425201 cm
102.121 79.445 m 118.789 96.871 117.273 110.508 126.367 118.844 c S Q
q 1 0 0 -1 0 198.425201 cm
101.742 116.949 m 105.152 108.613 120.684 89.293 131.668 83.992 c S Q
q 1 0 0 -1 0 198.425201 cm
167.836 83.992 m 184.504 101.418 182.988 115.055 192.078 123.387 c S Q
q 1 0 0 -1 0 198.425201 cm
167.457 121.496 m 170.863 113.16 186.395 93.84 197.383 88.539 c S Q
q 1 0 0 -1 0 198.425201 cm
31.465 78.688 m 48.133 96.113 46.617 109.75 55.707 118.086 c S Q
q 1 0 0 -1 0 198.425201 cm
31.086 116.191 m 34.496 107.855 50.027 88.539 61.012 83.234 c S Q
0 0.796078 0.145098 rg
q 1 0 0 -1 0 198.425201 cm
10.449 102.176 m 107.047 87.402 86.473 120.965 213.113 97.25 c S Q
0.141176 0 0.960784 rg
q 1 0 0 -1 0 198.425201 cm
46.754 12.641 m 29.301 12.641 23.332 42.324 39.996 44.594 c 56.664 46.867
 57.09 27.234 46.863 18.902 c S Q
q 1 0 0 -1 0 198.425201 cm
117.938 150.887 m 100.48 150.887 94.512 180.566 111.18 182.84 c 127.848
 185.113 128.273 165.48 118.043 157.145 c S Q
Q Q
showpage
%%Trailer
end restore
%%EOF
